4bit_Add+Sum/4bitadder_sub.vcd
$date
	Mon Mar 19 18:54:53 2018
$end
$version
	Icarus Verilog
$end
$timescale
	1s
$end
$scope module testbench $end
$var wire 1 ! Cout $end
$var wire 4 " Sum [3:0] $end
$var reg 4 # A [3:0] $end
$var reg 4 $ B [3:0] $end
$var reg 1 % Cin $end
$var reg 1 & M $end
$scope module tb $end
$var wire 4 ' A [3:0] $end
$var wire 4 ( B [3:0] $end
$var wire 1 ) Cin $end
$var wire 1 ! Cout $end
$var wire 1 * M $end
$var wire 4 + Sum [3:0] $end
$var wire 1 , b0 $end
$var wire 1 - b1 $end
$var wire 1 . b2 $end
$var wire 1 / b3 $end
$var wire 1 0 c1 $end
$var wire 1 1 c2 $end
$var wire 1 2 c3 $end
$scope module f1 $end
$var wire 1 3 a $end
$var wire 1 , b $end
$var wire 1 ) cin $end
$var wire 1 0 cout $end
$var wire 1 4 sum $end
$upscope $end
$scope module f2 $end
$var wire 1 5 a $end
$var wire 1 - b $end
$var wire 1 0 cin $end
$var wire 1 1 cout $end
$var wire 1 6 sum $end
$upscope $end
$scope module f3 $end
$var wire 1 7 a $end
$var wire 1 . b $end
$var wire 1 1 cin $end
$var wire 1 2 cout $end
$var wire 1 8 sum $end
$upscope $end
$scope module f4 $end
$var wire 1 9 a $end
$var wire 1 / b $end
$var wire 1 2 cin $end
$var wire 1 ! cout $end
$var wire 1 : sum $end
$upscope $end
$upscope $end
$upscope $end
$enddefinitions $end
#0
$dumpvars
0:
09
08
07
06
05
04
03
02
01
00
0/
0.
0-
0,
b0 +
0*
0)
b0 (
b0 '
0&
0%
b0 $
b0 #
b0 "
0!
$end
#5
14
b1 "
b1 +
1,
b1 $
b1 (
#10
04
16
b10 "
b10 +
0,
1-
b10 $
b10 (
#15
14
b11 "
b11 +
1,
b11 $
b11 (
#20
04
06
18
b100 "
b100 +
0,
0-
1.
b100 $
b100 (
#25
14
b101 "
b101 +
1,
b101 $
b101 (
#30
04
16
b110 "
b110 +
0,
1-
b110 $
b110 (
#35
14
b111 "
b111 +
1,
b111 $
b111 (
#40
04
06
08
1:
b1000 "
b1000 +
0,
0-
0.
1/
b1000 $
b1000 (
#45
14
b1001 "
b1001 +
1,
b1001 $
b1001 (
#50
04
16
b1010 "
b1010 +
0,
1-
b1010 $
b1010 (
#55
14
b1011 "
b1011 +
1,
b1011 $
b1011 (
#60
04
06
18
b1100 "
b1100 +
0,
0-
1.
b1100 $
b1100 (
#65
14
b1101 "
b1101 +
1,
b1101 $
b1101 (
#70
04
16
b1110 "
b1110 +
0,
1-
b1110 $
b1110 (
#75
14
b1111 "
b1111 +
1,
b1111 $
b1111 (
#80
06
08
0:
14
b1 "
b1 +
00
0,
0-
0.
0/
13
b0 $
b0 (
b1 #
b1 '
#85
16
04
b10 "
b10 +
10
1,
b1 $
b1 (
#90
08
01
14
00
16
b11 "
b11 +
0,
1-
b10 $
b10 (
#95
18
11
06
04
b100 "
b100 +
10
1,
b11 $
b11 (
#100
0:
01
02
14
00
06
18
b101 "
b101 +
0,
0-
1.
b100 $
b100 (
#105
16
04
b110 "
b110 +
10
1,
b101 $
b101 (
#110
0:
02
18
01
14
00
16
b111 "
b111 +
0,
1-
b110 $
b110 (
#115
1:
12
08
11
06
04
b1000 "
b1000 +
10
1,
b111 $
b111 (
#120
01
02
0!
14
00
06
08
1:
b1001 "
b1001 +
0,
0-
0.
1/
b1000 $
b1000 (
#125
16
04
b1010 "
b1010 +
10
1,
b1001 $
b1001 (
#130
08
01
14
00
16
b1011 "
b1011 +
0,
1-
b1010 $
b1010 (
#135
18
11
06
04
b1100 "
b1100 +
10
1,
b1011 $
b1011 (
#140
0!
1:
01
02
14
00
06
18
b1101 "
b1101 +
0,
0-
1.
b1100 $
b1100 (
#145
16
04
b1110 "
b1110 +
10
1,
b1101 $
b1101 (
#150
0!
1:
02
18
01
14
00
16
b1111 "
b1111 +
0,
1-
b1110 $
b1110 (
#155
1!
0:
12
08
11
06
04
b0 "
b0 +
10
1,
b1111 $
b1111 (
#160
02
0!
01
08
0:
04
00
16
b10 "
b10 +
0,
0-
0.
0/
03
15
b0 $
b0 (
b10 #
b10 '
#165
14
b11 "
b11 +
1,
b1 $
b1 (
#170
18
04
06
b100 "
b100 +
11
0,
1-
b10 $
b10 (
#175
14
b101 "
b101 +
1,
b11 $
b11 (
#180
0:
02
04
16
01
18
b110 "
b110 +
0,
0-
1.
b100 $
b100 (
#185
14
b111 "
b111 +
1,
b101 $
b101 (
#190
1:
12
08
04
06
b1000 "
b1000 +
11
0,
1-
b110 $
b110 (
#195
14
b1001 "
b1001 +
1,
b111 $
b111 (
#200
02
0!
04
16
01
08
1:
b1010 "
b1010 +
0,
0-
0.
1/
b1000 $
b1000 (
#205
14
b1011 "
b1011 +
1,
b1001 $
b1001 (
#210
18
04
06
b1100 "
b1100 +
11
0,
1-
b1010 $
b1010 (
#215
14
b1101 "
b1101 +
1,
b1011 $
b1011 (
#220
0!
1:
02
04
16
01
18
b1110 "
b1110 +
0,
0-
1.
b1100 $
b1100 (
#225
14
b1111 "
b1111 +
1,
b1101 $
b1101 (
#230
1!
0:
12
08
04
06
b0 "
b0 +
11
0,
1-
b1110 $
b1110 (
#235
14
b1 "
b1 +
1,
b1111 $
b1111 (
#240
01
16
02
0!
08
0:
14
b11 "
b11 +
00
0,
0-
0.
0/
13
b0 $
b0 (
b11 #
b11 '
#245
18
11
06
04
b100 "
b100 +
10
1,
b1 $
b1 (
#250
14
00
06
b101 "
b101 +
0,
1-
b10 $
b10 (
#255
16
04
b110 "
b110 +
10
1,
b11 $
b11 (
#260
01
0:
02
14
00
16
18
b111 "
b111 +
0,
0-
1.
b100 $
b100 (
#265
1:
12
08
11
06
04
b1000 "
b1000 +
10
1,
b101 $
b101 (
#270
14
00
06
b1001 "
b1001 +
0,
1-
b110 $
b110 (
#275
16
04
b1010 "
b1010 +
10
1,
b111 $
b111 (
#280
01
02
0!
14
00
16
08
1:
b1011 "
b1011 +
0,
0-
0.
1/
b1000 $
b1000 (
#285
18
11
06
04
b1100 "
b1100 +
10
1,
b1001 $
b1001 (
#290
14
00
06
b1101 "
b1101 +
0,
1-
b1010 $
b1010 (
#295
16
04
b1110 "
b1110 +
10
1,
b1011 $
b1011 (
#300
0!
01
1:
02
14
00
16
18
b1111 "
b1111 +
0,
0-
1.
b1100 $
b1100 (
#305
1!
0:
12
08
11
06
04
b0 "
b0 +
10
1,
b1101 $
b1101 (
#310
14
00
06
b1 "
b1 +
0,
1-
b1110 $
b1110 (
#315
16
04
b10 "
b10 +
10
1,
b1111 $
b1111 (
#320
02
0!
01
0:
04
00
06
18
b100 "
b100 +
0,
0-
0.
0/
03
05
17
b0 $
b0 (
b100 #
b100 '
#325
14
b101 "
b101 +
1,
b1 $
b1 (
#330
04
16
b110 "
b110 +
0,
1-
b10 $
b10 (
#335
14
b111 "
b111 +
1,
b11 $
b11 (
#340
1:
04
06
08
b1000 "
b1000 +
12
0,
0-
1.
b100 $
b100 (
#345
14
b1001 "
b1001 +
1,
b101 $
b101 (
#350
04
16
b1010 "
b1010 +
0,
1-
b110 $
b110 (
#355
14
b1011 "
b1011 +
1,
b111 $
b111 (
#360
0!
04
06
18
02
1:
b1100 "
b1100 +
0,
0-
0.
1/
b1000 $
b1000 (
#365
14
b1101 "
b1101 +
1,
b1001 $
b1001 (
#370
04
16
b1110 "
b1110 +
0,
1-
b1010 $
b1010 (
#375
14
b1111 "
b1111 +
1,
b1011 $
b1011 (
#380
1!
0:
04
06
08
b0 "
b0 +
12
0,
0-
1.
b1100 $
b1100 (
#385
14
b1 "
b1 +
1,
b1101 $
b1101 (
#390
04
16
b10 "
b10 +
0,
1-
b1110 $
b1110 (
#395
14
b11 "
b11 +
1,
b1111 $
b1111 (
#400
06
0!
18
02
0:
14
b101 "
b101 +
00
0,
0-
0.
0/
13
b0 $
b0 (
b101 #
b101 '
#405
16
04
b110 "
b110 +
10
1,
b1 $
b1 (
#410
0:
02
18
01
14
00
16
b111 "
b111 +
0,
1-
b10 $
b10 (
#415
1:
12
08
11
06
04
b1000 "
b1000 +
10
1,
b11 $
b11 (
#420
01
14
00
06
08
b1001 "
b1001 +
0,
0-
1.
b100 $
b100 (
#425
16
04
b1010 "
b1010 +
10
1,
b101 $
b101 (
#430
08
01
14
00
16
b1011 "
b1011 +
0,
1-
b110 $
b110 (
#435
18
11
06
04
b1100 "
b1100 +
10
1,
b111 $
b111 (
#440
02
01
0!
14
00
06
18
1:
b1101 "
b1101 +
0,
0-
0.
1/
b1000 $
b1000 (
#445
16
04
b1110 "
b1110 +
10
1,
b1001 $
b1001 (
#450
0!
1:
02
18
01
14
00
16
b1111 "
b1111 +
0,
1-
b1010 $
b1010 (
#455
1!
0:
12
08
11
06
04
b0 "
b0 +
10
1,
b1011 $
b1011 (
#460
01
14
00
06
08
b1 "
b1 +
0,
0-
1.
b1100 $
b1100 (
#465
16
04
b10 "
b10 +
10
1,
b1101 $
b1101 (
#470
08
01
14
00
16
b11 "
b11 +
0,
1-
b1110 $
b1110 (
#475
18
11
06
04
b100 "
b100 +
10
1,
b1111 $
b1111 (
#480
02
0!
01
18
0:
04
00
16
b110 "
b110 +
0,
0-
0.
0/
03
15
b0 $
b0 (
b110 #
b110 '
#485
14
b111 "
b111 +
1,
b1 $
b1 (
#490
1:
12
08
04
06
b1000 "
b1000 +
11
0,
1-
b10 $
b10 (
#495
14
b1001 "
b1001 +
1,
b11 $
b11 (
#500
04
16
01
08
b1010 "
b1010 +
0,
0-
1.
b100 $
b100 (
#505
14
b1011 "
b1011 +
1,
b101 $
b101 (
#510
18
04
06
b1100 "
b1100 +
11
0,
1-
b110 $
b110 (
#515
14
b1101 "
b1101 +
1,
b111 $
b111 (
#520
02
0!
04
16
01
18
1:
b1110 "
b1110 +
0,
0-
0.
1/
b1000 $
b1000 (
#525
14
b1111 "
b1111 +
1,
b1001 $
b1001 (
#530
1!
0:
12
08
04
06
b0 "
b0 +
11
0,
1-
b1010 $
b1010 (
#535
14
b1 "
b1 +
1,
b1011 $
b1011 (
#540
04
16
01
08
b10 "
b10 +
0,
0-
1.
b1100 $
b1100 (
#545
14
b11 "
b11 +
1,
b1101 $
b1101 (
#550
18
04
06
b100 "
b100 +
11
0,
1-
b1110 $
b1110 (
#555
14
b101 "
b101 +
1,
b1111 $
b1111 (
#560
02
01
16
0!
18
0:
14
b111 "
b111 +
00
0,
0-
0.
0/
13
b0 $
b0 (
b111 #
b111 '
#565
1:
12
08
11
06
04
b1000 "
b1000 +
10
1,
b1 $
b1 (
#570
14
00
06
b1001 "
b1001 +
0,
1-
b10 $
b10 (
#575
16
04
b1010 "
b1010 +
10
1,
b11 $
b11 (
#580
01
14
00
16
08
b1011 "
b1011 +
0,
0-
1.
b100 $
b100 (
#585
18
11
06
04
b1100 "
b1100 +
10
1,
b101 $
b101 (
#590
14
00
06
b1101 "
b1101 +
0,
1-
b110 $
b110 (
#595
16
04
b1110 "
b1110 +
10
1,
b111 $
b111 (
#600
02
01
0!
14
00
16
18
1:
b1111 "
b1111 +
0,
0-
0.
1/
b1000 $
b1000 (
#605
1!
0:
12
08
11
06
04
b0 "
b0 +
10
1,
b1001 $
b1001 (
#610
14
00
06
b1 "
b1 +
0,
1-
b1010 $
b1010 (
#615
16
04
b10 "
b10 +
10
1,
b1011 $
b1011 (
#620
01
14
00
16
08
b11 "
b11 +
0,
0-
1.
b1100 $
b1100 (
#625
18
11
06
04
b100 "
b100 +
10
1,
b1101 $
b1101 (
#630
14
00
06
b101 "
b101 +
0,
1-
b1110 $
b1110 (
#635
16
04
b110 "
b110 +
10
1,
b1111 $
b1111 (
#640
0!
02
01
04
00
06
08
1:
b1000 "
b1000 +
0,
0-
0.
0/
03
05
07
19
b0 $
b0 (
b1000 #
b1000 '
#645
14
b1001 "
b1001 +
1,
b1 $
b1 (
#650
04
16
b1010 "
b1010 +
0,
1-
b10 $
b10 (
#655
14
b1011 "
b1011 +
1,
b11 $
b11 (
#660
04
06
18
b1100 "
b1100 +
0,
0-
1.
b100 $
b100 (
#665
14
b1101 "
b1101 +
1,
b101 $
b101 (
#670
04
16
b1110 "
b1110 +
0,
1-
b110 $
b110 (
#675
14
b1111 "
b1111 +
1,
b111 $
b111 (
#680
04
06
08
0:
b0 "
b0 +
1!
0,
0-
0.
1/
b1000 $
b1000 (
#685
14
b1 "
b1 +
1,
b1001 $
b1001 (
#690
04
16
b10 "
b10 +
0,
1-
b1010 $
b1010 (
#695
14
b11 "
b11 +
1,
b1011 $
b1011 (
#700
04
06
18
b100 "
b100 +
0,
0-
1.
b1100 $
b1100 (
#705
14
b101 "
b101 +
1,
b1101 $
b1101 (
#710
04
16
b110 "
b110 +
0,
1-
b1110 $
b1110 (
#715
14
b111 "
b111 +
1,
b1111 $
b1111 (
#720
06
08
1:
0!
14
b1001 "
b1001 +
00
0,
0-
0.
0/
13
b0 $
b0 (
b1001 #
b1001 '
#725
16
04
b1010 "
b1010 +
10
1,
b1 $
b1 (
#730
08
01
14
00
16
b1011 "
b1011 +
0,
1-
b10 $
b10 (
#735
18
11
06
04
b1100 "
b1100 +
10
1,
b11 $
b11 (
#740
0!
1:
01
02
14
00
06
18
b1101 "
b1101 +
0,
0-
1.
b100 $
b100 (
#745
16
04
b1110 "
b1110 +
10
1,
b101 $
b101 (
#750
0!
1:
02
18
01
14
00
16
b1111 "
b1111 +
0,
1-
b110 $
b110 (
#755
1!
0:
12
08
11
06
04
b0 "
b0 +
10
1,
b111 $
b111 (
#760
01
02
14
00
06
08
0:
b1 "
b1 +
0,
0-
0.
1/
b1000 $
b1000 (
#765
16
04
b10 "
b10 +
10
1,
b1001 $
b1001 (
#770
08
01
14
00
16
b11 "
b11 +
0,
1-
b1010 $
b1010 (
#775
18
11
06
04
b100 "
b100 +
10
1,
b1011 $
b1011 (
#780
0:
01
02
14
00
06
18
b101 "
b101 +
0,
0-
1.
b1100 $
b1100 (
#785
16
04
b110 "
b110 +
10
1,
b1101 $
b1101 (
#790
0:
02
18
01
14
00
16
b111 "
b111 +
0,
1-
b1110 $
b1110 (
#795
1:
12
08
11
06
04
b1000 "
b1000 +
10
1,
b1111 $
b1111 (
#800
0!
02
01
08
1:
04
00
16
b1010 "
b1010 +
0,
0-
0.
0/
03
15
b0 $
b0 (
b1010 #
b1010 '
#805
14
b1011 "
b1011 +
1,
b1 $
b1 (
#810
18
04
06
b1100 "
b1100 +
11
0,
1-
b10 $
b10 (
#815
14
b1101 "
b1101 +
1,
b11 $
b11 (
#820
0!
1:
02
04
16
01
18
b1110 "
b1110 +
0,
0-
1.
b100 $
b100 (
#825
14
b1111 "
b1111 +
1,
b101 $
b101 (
#830
1!
0:
12
08
04
06
b0 "
b0 +
11
0,
1-
b110 $
b110 (
#835
14
b1 "
b1 +
1,
b111 $
b111 (
#840
02
04
16
01
08
0:
b10 "
b10 +
0,
0-
0.
1/
b1000 $
b1000 (
#845
14
b11 "
b11 +
1,
b1001 $
b1001 (
#850
18
04
06
b100 "
b100 +
11
0,
1-
b1010 $
b1010 (
#855
14
b101 "
b101 +
1,
b1011 $
b1011 (
#860
0:
02
04
16
01
18
b110 "
b110 +
0,
0-
1.
b1100 $
b1100 (
#865
14
b111 "
b111 +
1,
b1101 $
b1101 (
#870
1:
12
08
04
06
b1000 "
b1000 +
11
0,
1-
b1110 $
b1110 (
#875
14
b1001 "
b1001 +
1,
b1111 $
b1111 (
#880
0!
01
16
02
08
1:
14
b1011 "
b1011 +
00
0,
0-
0.
0/
13
b0 $
b0 (
b1011 #
b1011 '
#885
18
11
06
04
b1100 "
b1100 +
10
1,
b1 $
b1 (
#890
14
00
06
b1101 "
b1101 +
0,
1-
b10 $
b10 (
#895
16
04
b1110 "
b1110 +
10
1,
b11 $
b11 (
#900
0!
01
1:
02
14
00
16
18
b1111 "
b1111 +
0,
0-
1.
b100 $
b100 (
#905
1!
0:
12
08
11
06
04
b0 "
b0 +
10
1,
b101 $
b101 (
#910
14
00
06
b1 "
b1 +
0,
1-
b110 $
b110 (
#915
16
04
b10 "
b10 +
10
1,
b111 $
b111 (
#920
01
02
14
00
16
08
0:
b11 "
b11 +
0,
0-
0.
1/
b1000 $
b1000 (
#925
18
11
06
04
b100 "
b100 +
10
1,
b1001 $
b1001 (
#930
14
00
06
b101 "
b101 +
0,
1-
b1010 $
b1010 (
#935
16
04
b110 "
b110 +
10
1,
b1011 $
b1011 (
#940
01
0:
02
14
00
16
18
b111 "
b111 +
0,
0-
1.
b1100 $
b1100 (
#945
1:
12
08
11
06
04
b1000 "
b1000 +
10
1,
b1101 $
b1101 (
#950
14
00
06
b1001 "
b1001 +
0,
1-
b1110 $
b1110 (
#955
16
04
b1010 "
b1010 +
10
1,
b1111 $
b1111 (
#960
0!
02
01
1:
04
00
06
18
b1100 "
b1100 +
0,
0-
0.
0/
03
05
17
b0 $
b0 (
b1100 #
b1100 '
#965
14
b1101 "
b1101 +
1,
b1 $
b1 (
#970
04
16
b1110 "
b1110 +
0,
1-
b10 $
b10 (
#975
14
b1111 "
b1111 +
1,
b11 $
b11 (
#980
1!
0:
04
06
08
b0 "
b0 +
12
0,
0-
1.
b100 $
b100 (
#985
14
b1 "
b1 +
1,
b101 $
b101 (
#990
04
16
b10 "
b10 +
0,
1-
b110 $
b110 (
#995
14
b11 "
b11 +
1,
b111 $
b111 (
#1000
04
06
18
02
0:
b100 "
b100 +
0,
0-
0.
1/
b1000 $
b1000 (
#1005
14
b101 "
b101 +
1,
b1001 $
b1001 (
#1010
04
16
b110 "
b110 +
0,
1-
b1010 $
b1010 (
#1015
14
b111 "
b111 +
1,
b1011 $
b1011 (
#1020
1:
04
06
08
b1000 "
b1000 +
12
0,
0-
1.
b1100 $
b1100 (
#1025
14
b1001 "
b1001 +
1,
b1101 $
b1101 (
#1030
04
16
b1010 "
b1010 +
0,
1-
b1110 $
b1110 (
#1035
14
b1011 "
b1011 +
1,
b1111 $
b1111 (
#1040
0!
06
18
02
1:
14
b1101 "
b1101 +
00
0,
0-
0.
0/
13
b0 $
b0 (
b1101 #
b1101 '
#1045
16
04
b1110 "
b1110 +
10
1,
b1 $
b1 (
#1050
0!
1:
02
18
01
14
00
16
b1111 "
b1111 +
0,
1-
b10 $
b10 (
#1055
1!
0:
12
08
11
06
04
b0 "
b0 +
10
1,
b11 $
b11 (
#1060
01
14
00
06
08
b1 "
b1 +
0,
0-
1.
b100 $
b100 (
#1065
16
04
b10 "
b10 +
10
1,
b101 $
b101 (
#1070
08
01
14
00
16
b11 "
b11 +
0,
1-
b110 $
b110 (
#1075
18
11
06
04
b100 "
b100 +
10
1,
b111 $
b111 (
#1080
02
01
14
00
06
18
0:
b101 "
b101 +
0,
0-
0.
1/
b1000 $
b1000 (
#1085
16
04
b110 "
b110 +
10
1,
b1001 $
b1001 (
#1090
0:
02
18
01
14
00
16
b111 "
b111 +
0,
1-
b1010 $
b1010 (
#1095
1:
12
08
11
06
04
b1000 "
b1000 +
10
1,
b1011 $
b1011 (
#1100
01
14
00
06
08
b1001 "
b1001 +
0,
0-
1.
b1100 $
b1100 (
#1105
16
04
b1010 "
b1010 +
10
1,
b1101 $
b1101 (
#1110
08
01
14
00
16
b1011 "
b1011 +
0,
1-
b1110 $
b1110 (
#1115
18
11
06
04
b1100 "
b1100 +
10
1,
b1111 $
b1111 (
#1120
0!
02
01
18
1:
04
00
16
b1110 "
b1110 +
0,
0-
0.
0/
03
15
b0 $
b0 (
b1110 #
b1110 '
#1125
14
b1111 "
b1111 +
1,
b1 $
b1 (
#1130
1!
0:
12
08
04
06
b0 "
b0 +
11
0,
1-
b10 $
b10 (
#1135
14
b1 "
b1 +
1,
b11 $
b11 (
#1140
04
16
01
08
b10 "
b10 +
0,
0-
1.
b100 $
b100 (
#1145
14
b11 "
b11 +
1,
b101 $
b101 (
#1150
18
04
06
b100 "
b100 +
11
0,
1-
b110 $
b110 (
#1155
14
b101 "
b101 +
1,
b111 $
b111 (
#1160
02
04
16
01
18
0:
b110 "
b110 +
0,
0-
0.
1/
b1000 $
b1000 (
#1165
14
b111 "
b111 +
1,
b1001 $
b1001 (
#1170
1:
12
08
04
06
b1000 "
b1000 +
11
0,
1-
b1010 $
b1010 (
#1175
14
b1001 "
b1001 +
1,
b1011 $
b1011 (
#1180
04
16
01
08
b1010 "
b1010 +
0,
0-
1.
b1100 $
b1100 (
#1185
14
b1011 "
b1011 +
1,
b1101 $
b1101 (
#1190
18
04
06
b1100 "
b1100 +
11
0,
1-
b1110 $
b1110 (
#1195
14
b1101 "
b1101 +
1,
b1111 $
b1111 (
#1200
0!
02
01
16
18
1:
14
b1111 "
b1111 +
00
0,
0-
0.
0/
13
b0 $
b0 (
b1111 #
b1111 '
#1205
1!
0:
12
08
11
06
04
b0 "
b0 +
10
1,
b1 $
b1 (
#1210
14
00
06
b1 "
b1 +
0,
1-
b10 $
b10 (
#1215
16
04
b10 "
b10 +
10
1,
b11 $
b11 (
#1220
01
14
00
16
08
b11 "
b11 +
0,
0-
1.
b100 $
b100 (
#1225
18
11
06
04
b100 "
b100 +
10
1,
b101 $
b101 (
#1230
14
00
06
b101 "
b101 +
0,
1-
b110 $
b110 (
#1235
16
04
b110 "
b110 +
10
1,
b111 $
b111 (
#1240
02
01
14
00
16
18
0:
b111 "
b111 +
0,
0-
0.
1/
b1000 $
b1000 (
#1245
1:
12
08
11
06
04
b1000 "
b1000 +
10
1,
b1001 $
b1001 (
#1250
14
00
06
b1001 "
b1001 +
0,
1-
b1010 $
b1010 (
#1255
16
04
b1010 "
b1010 +
10
1,
b1011 $
b1011 (
#1260
01
14
00
16
08
b1011 "
b1011 +
0,
0-
1.
b1100 $
b1100 (
#1265
18
11
06
04
b1100 "
b1100 +
10
1,
b1101 $
b1101 (
#1270
14
00
06
b1101 "
b1101 +
0,
1-
b1110 $
b1110 (
#1275
16
04
b1110 "
b1110 +
10
1,
b1111 $
b1111 (
#1280
0!
02
01
14
00
16
18
1:
b1111 "
b1111 +
03
05
07
09
1&
1*
b0 $
b0 (
b0 #
b0 '
#1285
04
b1110 "
b1110 +
0,
b1 $
b1 (
#1290
14
06
b1101 "
b1101 +
1,
0-
b10 $
b10 (
#1295
04
b1100 "
b1100 +
0,
b11 $
b11 (
#1300
14
16
08
b1011 "
b1011 +
1,
1-
0.
b100 $
b100 (
#1305
04
b1010 "
b1010 +
0,
b101 $
b101 (
#1310
14
06
b1001 "
b1001 +
1,
0-
b110 $
b110 (
#1315
04
b1000 "
b1000 +
0,
b111 $
b111 (
#1320
14
16
18
0:
b111 "
b111 +
1,
1-
1.
0/
b1000 $
b1000 (
#1325
04
b110 "
b110 +
0,
b1001 $
b1001 (
#1330
14
06
b101 "
b101 +
1,
0-
b1010 $
b1010 (
#1335
04
b100 "
b100 +
0,
b1011 $
b1011 (
#1340
14
16
08
b11 "
b11 +
1,
1-
0.
b1100 $
b1100 (
#1345
04
b10 "
b10 +
0,
b1101 $
b1101 (
#1350
14
06
b1 "
b1 +
1,
0-
b1110 $
b1110 (
#1355
04
b0 "
b0 +
0,
b1111 $
b1111 (
#1360
1!
12
11
10
06
08
0:
04
b0 "
b0 +
1,
1-
1.
1/
13
b0 $
b0 (
b1 #
b1 '
#1365
0!
1:
02
18
01
16
14
b1111 "
b1111 +
00
0,
b1 $
b1 (
#1370
04
10
16
b1110 "
b1110 +
1,
0-
b10 $
b10 (
#1375
06
14
b1101 "
b1101 +
00
0,
b11 $
b11 (
#1380
11
04
10
06
18
b1100 "
b1100 +
1,
1-
0.
b100 $
b100 (
#1385
08
01
16
14
b1011 "
b1011 +
00
0,
b101 $
b101 (
#1390
04
10
16
b1010 "
b1010 +
1,
0-
b110 $
b110 (
#1395
06
14
b1001 "
b1001 +
00
0,
b111 $
b111 (
#1400
12
11
04
10
06
08
1:
b1000 "
b1000 +
1,
1-
1.
0/
b1000 $
b1000 (
#1405
0:
02
18
01
16
14
b111 "
b111 +
00
0,
b1001 $
b1001 (
#1410
04
10
16
b110 "
b110 +
1,
0-
b1010 $
b1010 (
#1415
06
14
b101 "
b101 +
00
0,
b1011 $
b1011 (
#1420
11
04
10
06
18
b100 "
b100 +
1,
1-
0.
b1100 $
b1100 (
#1425
08
01
16
14
b11 "
b11 +
00
0,
b1101 $
b1101 (
#1430
04
10
16
b10 "
b10 +
1,
0-
b1110 $
b1110 (
#1435
06
14
b1 "
b1 +
00
0,
b1111 $
b1111 (
#1440
1!
12
11
08
0:
14
06
b1 "
b1 +
1,
1-
1.
1/
03
15
b0 $
b0 (
b10 #
b10 '
#1445
04
b0 "
b0 +
0,
b1 $
b1 (
#1450
0!
1:
02
18
14
16
b1111 "
b1111 +
01
1,
0-
b10 $
b10 (
#1455
04
b1110 "
b1110 +
0,
b11 $
b11 (
#1460
14
06
11
18
b1101 "
b1101 +
1,
1-
0.
b100 $
b100 (
#1465
04
b1100 "
b1100 +
0,
b101 $
b101 (
#1470
08
14
16
b1011 "
b1011 +
01
1,
0-
b110 $
b110 (
#1475
04
b1010 "
b1010 +
0,
b111 $
b111 (
#1480
12
14
06
11
08
1:
b1001 "
b1001 +
1,
1-
1.
0/
b1000 $
b1000 (
#1485
04
b1000 "
b1000 +
0,
b1001 $
b1001 (
#1490
0:
02
18
14
16
b111 "
b111 +
01
1,
0-
b1010 $
b1010 (
#1495
04
b110 "
b110 +
0,
b1011 $
b1011 (
#1500
14
06
11
18
b101 "
b101 +
1,
1-
0.
b1100 $
b1100 (
#1505
04
b100 "
b100 +
0,
b1101 $
b1101 (
#1510
08
14
16
b11 "
b11 +
01
1,
0-
b1110 $
b1110 (
#1515
04
b10 "
b10 +
0,
b1111 $
b1111 (
#1520
1!
12
10
16
11
08
0:
04
b10 "
b10 +
1,
1-
1.
1/
13
b0 $
b0 (
b11 #
b11 '
#1525
06
14
b1 "
b1 +
00
0,
b1 $
b1 (
#1530
1!
0:
12
08
04
10
06
b0 "
b0 +
11
1,
0-
b10 $
b10 (
#1535
0!
1:
02
18
01
16
14
b1111 "
b1111 +
00
0,
b11 $
b11 (
#1540
04
10
16
11
18
b1110 "
b1110 +
1,
1-
0.
b100 $
b100 (
#1545
06
14
b1101 "
b1101 +
00
0,
b101 $
b101 (
#1550
18
04
10
06
b1100 "
b1100 +
11
1,
0-
b110 $
b110 (
#1555
08
01
16
14
b1011 "
b1011 +
00
0,
b111 $
b111 (
#1560
12
04
10
16
11
08
1:
b1010 "
b1010 +
1,
1-
1.
0/
b1000 $
b1000 (
#1565
06
14
b1001 "
b1001 +
00
0,
b1001 $
b1001 (
#1570
1:
12
08
04
10
06
b1000 "
b1000 +
11
1,
0-
b1010 $
b1010 (
#1575
0:
02
18
01
16
14
b111 "
b111 +
00
0,
b1011 $
b1011 (
#1580
04
10
16
11
18
b110 "
b110 +
1,
1-
0.
b1100 $
b1100 (
#1585
06
14
b101 "
b101 +
00
0,
b1101 $
b1101 (
#1590
18
04
10
06
b100 "
b100 +
11
1,
0-
b1110 $
b1110 (
#1595
08
01
16
14
b11 "
b11 +
00
0,
b1111 $
b1111 (
#1600
1!
12
0:
14
16
08
b11 "
b11 +
1,
1-
1.
1/
03
05
17
b0 $
b0 (
b100 #
b100 '
#1605
04
b10 "
b10 +
0,
b1 $
b1 (
#1610
14
06
b1 "
b1 +
1,
0-
b10 $
b10 (
#1615
04
b0 "
b0 +
0,
b11 $
b11 (
#1620
0!
1:
14
16
18
b1111 "
b1111 +
02
1,
1-
0.
b100 $
b100 (
#1625
04
b1110 "
b1110 +
0,
b101 $
b101 (
#1630
14
06
b1101 "
b1101 +
1,
0-
b110 $
b110 (
#1635
04
b1100 "
b1100 +
0,
b111 $
b111 (
#1640
14
16
08
12
1:
b1011 "
b1011 +
1,
1-
1.
0/
b1000 $
b1000 (
#1645
04
b1010 "
b1010 +
0,
b1001 $
b1001 (
#1650
14
06
b1001 "
b1001 +
1,
0-
b1010 $
b1010 (
#1655
04
b1000 "
b1000 +
0,
b1011 $
b1011 (
#1660
0:
14
16
18
b111 "
b111 +
02
1,
1-
0.
b1100 $
b1100 (
#1665
04
b110 "
b110 +
0,
b1101 $
b1101 (
#1670
14
06
b101 "
b101 +
1,
0-
b1110 $
b1110 (
#1675
04
b100 "
b100 +
0,
b1111 $
b1111 (
#1680
11
1!
10
06
18
12
0:
04
b100 "
b100 +
1,
1-
1.
1/
13
b0 $
b0 (
b101 #
b101 '
#1685
08
01
16
14
b11 "
b11 +
00
0,
b1 $
b1 (
#1690
04
10
16
b10 "
b10 +
1,
0-
b10 $
b10 (
#1695
06
14
b1 "
b1 +
00
0,
b11 $
b11 (
#1700
11
1!
0:
04
10
06
08
b0 "
b0 +
12
1,
1-
0.
b100 $
b100 (
#1705
0!
1:
02
18
01
16
14
b1111 "
b1111 +
00
0,
b101 $
b101 (
#1710
04
10
16
b1110 "
b1110 +
1,
0-
b110 $
b110 (
#1715
06
14
b1101 "
b1101 +
00
0,
b111 $
b111 (
#1720
11
04
10
06
18
12
1:
b1100 "
b1100 +
1,
1-
1.
0/
b1000 $
b1000 (
#1725
08
01
16
14
b1011 "
b1011 +
00
0,
b1001 $
b1001 (
#1730
04
10
16
b1010 "
b1010 +
1,
0-
b1010 $
b1010 (
#1735
06
14
b1001 "
b1001 +
00
0,
b1011 $
b1011 (
#1740
11
1:
04
10
06
08
b1000 "
b1000 +
12
1,
1-
0.
b1100 $
b1100 (
#1745
0:
02
18
01
16
14
b111 "
b111 +
00
0,
b1101 $
b1101 (
#1750
04
10
16
b110 "
b110 +
1,
0-
b1110 $
b1110 (
#1755
06
14
b101 "
b101 +
00
0,
b1111 $
b1111 (
